"accuracy","Condition","N","P2PEVBACK","Rsd","Rse","Rse_c","Zmean","Zsd","Zse","Zse_c"
"wrong","incongruent",35,0.35423771170915,0.131815824573994,0.0222809409958517,0.0297079213278023,0.0203214615299177,0.119638295253212,0.0202225628523437,0.0269634171364583
"wrong","congruent",35,0.303377115508085,0.226576474776748,0.0382984143357914,0.0510645524477219,-0.0305391346711474,0.222522807006007,0.0376132194230518,0.0501509592307358
"correct","incongruent",35,0.331127880103031,0.032166250508596,0.00543708869520064,0.00724945159360085,-0.00278837007620067,0.0291238744046193,0.00492283327344858,0.00656377769793144
"correct","congruent",35,0.335454879171447,0.0353714110206935,0.00597885970397805,0.0079718129386374,0.00153862899221536,0.0304102671267279,0.00514027332991697,0.00685369777322263
