"Cond","EV","EVBACK","N","logRT","Rsd","Zmean","Zsd","Zse","Zse_c"
-1,30,30,35,0.124041200467132,0.0820598991622764,0.123080505985752,0.0514809612602985,0.00870187068933104,0.00921374543576228
-1,30,50,35,0.125142779908001,0.0903940506153712,0.124182085426621,0.0532761055850321,0.00900530546211111,0.00953502931282353
-1,30,70,35,0.121767806954086,0.0742659485673996,0.120807112472706,0.0313997475082443,0.00530752604079877,0.0056197334549634
-1,50,30,35,0.060387104894572,0.108497913858867,0.0594264104131919,0.0844431944215046,0.0142735050096404,0.0151131229513839
-1,50,50,35,0.0569496057411101,0.0886037163792424,0.05598891125973,0.0503410263469612,0.00850918652090692,0.00900972690448968
-1,50,70,35,0.0631795911078276,0.0957043676991512,0.0622188966264475,0.0503109440679966,0.00850410168769515,0.00900434296344192
-1,70,30,35,-0.0266963026809486,0.100108519095512,-0.0276569971623287,0.0671736356937969,0.0113544168024392,0.0120223236731709
-1,70,50,35,-0.0423142491538965,0.0916717519383164,-0.0432749436352766,0.0528157598110722,0.0089274928242094,0.0094526394609276
-1,70,70,35,-0.0651630031059785,0.0907788152559178,-0.0661236975873586,0.0492179025214027,0.00831934394495537,0.00880871711818804
1,30,30,35,0.126227111873747,0.0826374734833478,0.125266417392367,0.0624714380820242,0.0105596003388064,0.0111807532999126
1,30,50,35,0.129962309596501,0.0779138388896021,0.129001615115121,0.051814835679478,0.00875830576651396,0.00927350022336772
1,30,70,35,0.132236188775528,0.0780888664471772,0.131275494294148,0.0416486233833357,0.00703990225120235,0.00745401414833189
1,50,30,35,0.0544119918658471,0.102985256424353,0.053451297384467,0.0749122577589063,0.0126624826752518,0.0134073345973254
1,50,50,35,0.0719042895943119,0.098361155864252,0.0709435951129318,0.0641577917068134,0.0108446461269999,0.0114825664874116
1,50,70,35,0.0922572935725146,0.0918422268574355,0.0912965990911345,0.0569204871221089,0.00962131837449401,0.010187278278876
1,70,30,35,-0.0441535954792898,0.0891420441981185,-0.0451142899606699,0.0585687396982935,0.00989992391001994,0.0104822723753152
1,70,50,35,-0.0313269450316817,0.0937385257747248,-0.0322876395130617,0.0574938662032725,0.00971823712849756,0.0102898981360562
1,70,70,35,-0.0109498639480642,0.0953020217579178,-0.0119105584294443,0.0492892699362621,0.00833140723981886,0.00882149001863174
