"Switch6","N","logRT","Rsd","Zmean","Zsd","Zse","Zse_c","EVBACK"
1,35,0.0799424569251631,0.0825407619539017,0.0777793276384583,0.0315249814011293,0.00532869443228036,0.00639443331873644,30
2,35,0.0595379278350761,0.074673481901943,0.0573747985483713,0.0321065646013641,0.00542699993551176,0.00651239992261411,30
3,35,0.0457996576612552,0.0885843100254426,0.0436365283745504,0.0351521542455279,0.00594179854469621,0.00713015825363545,30
4,35,0.0349119403080645,0.0832741653735588,0.0327488110213597,0.0303234596793685,0.00512560019322139,0.00615072023186567,30
5,35,0.0208670051294031,0.0891126604779305,0.0187038758426983,0.0368497285239227,0.0062287409695168,0.00747448916342017,30
6,35,0.0304744831991236,0.106161858106184,0.0283113539124188,0.0662824718270279,0.0112037826157071,0.0134445391388486,30
1,35,0.0799424569251631,0.0825407619539017,0.0777793276384583,0.0315249814011293,0.00532869443228036,0.00639443331873644,50
2,35,0.0595379278350761,0.074673481901943,0.0573747985483713,0.0321065646013641,0.00542699993551176,0.00651239992261411,50
3,35,0.0457996576612552,0.0885843100254426,0.0436365283745504,0.0351521542455279,0.00594179854469621,0.00713015825363545,50
4,35,0.0349119403080645,0.0832741653735588,0.0327488110213597,0.0303234596793685,0.00512560019322139,0.00615072023186567,50
5,35,0.0208670051294031,0.0891126604779305,0.0187038758426983,0.0368497285239227,0.0062287409695168,0.00747448916342017,50
6,35,0.0304744831991236,0.106161858106184,0.0283113539124188,0.0662824718270279,0.0112037826157071,0.0134445391388486,50
1,35,0.0799424569251631,0.0825407619539017,0.0777793276384583,0.0315249814011293,0.00532869443228036,0.00639443331873644,70
2,35,0.0595379278350761,0.074673481901943,0.0573747985483713,0.0321065646013641,0.00542699993551176,0.00651239992261411,70
3,35,0.0457996576612552,0.0885843100254426,0.0436365283745504,0.0351521542455279,0.00594179854469621,0.00713015825363545,70
4,35,0.0349119403080645,0.0832741653735588,0.0327488110213597,0.0303234596793685,0.00512560019322139,0.00615072023186567,70
5,35,0.0208670051294031,0.0891126604779305,0.0187038758426983,0.0368497285239227,0.0062287409695168,0.00747448916342017,70
6,35,0.0304744831991236,0.106161858106184,0.0283113539124188,0.0662824718270279,0.0112037826157071,0.0134445391388486,70
