"x","predicted","std.error","conf.low","conf.high","group","group_col"
-4,0.289479290318391,0.0787168899974984,0.258803515295191,0.322210421757372,"1","1"
-3,0.302251521595472,0.0607495877552459,0.277746737927619,0.327936648571092,"1","1"
-2,0.315337181126016,0.0435586937026493,0.297201999611427,0.33405297695293,"1","1"
-1,0.328722467567871,0.0285813037635611,0.316481884575796,0.34120015244643,"1","1"
0,0.342391790118424,0.0211921163564077,0.333101758912502,0.351804237268478,"1","1"
1,0.356327800823267,0.0281780838524717,0.343763680204485,0.369092850563,"1","1"
2,0.370511448034002,0.043030068168958,0.351065104333536,0.390386960588831,"1","1"
3,0.384922051411719,0.0601818316998432,0.357401025634552,0.413199606273307,"1","1"
4,0.399537398446102,0.0781332369095647,0.363424532104609,0.436776561689428,"1","1"
