"ModelNames","AIC","order","Hline"
"EVBACK+logitCtxt",-431.677902472179,3,-431.677902472179
"EVBACK+logitCtxt+logitother",-473.504347518586,2,-431.677902472179
"EVBACK+logitCtxt+logitevback",-574.017390259714,1,-431.677902472179
